%YAML 1.1
%TAG !u! tag:unity3d.com,2011:
--- !u!114 &11400000
MonoBehaviour:
  m_ObjectHideFlags: 0
  m_CorrespondingSourceObject: {fileID: 0}
  m_PrefabInstance: {fileID: 0}
  m_PrefabAsset: {fileID: 0}
  m_GameObject: {fileID: 0}
  m_Enabled: 1
  m_EditorHideFlags: 0
  m_Script: {fileID: 11500000, guid: c66295f1cd2a0e34db19e66b9887bb96, type: 3}
  m_Name: Level Settings - N2 Carnival
  m_EditorClassIdentifier: Assembly-CSharp::LevelSettings
  levelIndex: 2
  levelName: Carnival
  sceneName: N2 Carnival
  mapLayouts:
  - {fileID: 11400000, guid: f522ae40d5d521b4a83f8949bc512908, type: 2}
  - {fileID: 11400000, guid: 964a157062dc53b488e50af9142dd4e8, type: 2}
