%YAML 1.1
%TAG !u! tag:unity3d.com,2011:
--- !u!114 &11400000
MonoBehaviour:
  m_ObjectHideFlags: 0
  m_CorrespondingSourceObject: {fileID: 0}
  m_PrefabInstance: {fileID: 0}
  m_PrefabAsset: {fileID: 0}
  m_GameObject: {fileID: 0}
  m_Enabled: 1
  m_EditorHideFlags: 0
  m_Script: {fileID: 11500000, guid: 0c0d9a35db48adf49984ad69e623d643, type: 3}
  m_Name: Map Layout 1 - N2 Carnival
  m_EditorClassIdentifier: 
  roomIndexes:
  - {x: 0, y: 0}
  - {x: 0, y: 2}
  - {x: 1, y: 0}
  - {x: 1, y: 1}
  - {x: 1, y: 2}
  - {x: 2, y: 0}
  - {x: 2, y: 2}
  - {x: 2, y: 3}
  - {x: 3, y: 0}
  - {x: 3, y: 1}
  - {x: 3, y: 3}
  playerSpawnRoomIndex: {x: 0, y: 0}
  enemySpawnRoomIndex: {x: 1, y: 1}
  exitPointRoomIndex: {x: 3, y: 0}
  exitPointDirection: 1
  playerSpawnPointOffset: {x: 0, y: 0}
  enemySpawnPointOffset: {x: 0, y: 0}
  roomPrefabs:
  - {fileID: 3516615339871204434, guid: 6f5a9954d8069d144aa2f4e9ddfbeec6, type: 3}
  maxMapDimensions: 12
  roomOffset: 10
