%YAML 1.1
%TAG !u! tag:unity3d.com,2011:
--- !u!114 &11400000
MonoBehaviour:
  m_ObjectHideFlags: 0
  m_CorrespondingSourceObject: {fileID: 0}
  m_PrefabInstance: {fileID: 0}
  m_PrefabAsset: {fileID: 0}
  m_GameObject: {fileID: 0}
  m_Enabled: 1
  m_EditorHideFlags: 0
  m_Script: {fileID: 11500000, guid: 0c0d9a35db48adf49984ad69e623d643, type: 3}
  m_Name: Map Layout 2 - N1 Haunted House
  m_EditorClassIdentifier: 
  roomIndexes:
  - {x: 0, y: 0}
  - {x: 0, y: 2}
  - {x: 0, y: 3}
  - {x: 1, y: 0}
  - {x: 1, y: 1}
  - {x: 1, y: 2}
  - {x: 1, y: 3}
  - {x: 2, y: 1}
  - {x: 2, y: 2}
  - {x: 3, y: 2}
  - {x: 3, y: 3}
  playerSpawnRoomIndex: {x: 0, y: 3}
  enemySpawnRoomIndex: {x: 1, y: 2}
  exitPointRoomIndex: {x: 0, y: 0}
  exitPointDirection: 2
  playerSpawnPointOffset: {x: 0, y: 0}
  enemySpawnPointOffset: {x: 0, y: 0}
  roomPrefabs:
  - {fileID: 7469434322672493749, guid: 021038f237128a646b374270bf3a6e96, type: 3}
  maxMapDimensions: 12
  roomOffset: 10
